…
Такую таблицу, наверное, удобно просматривать глазами, но с ней точно
неудобно работать в программе, так как она не отвечает основным
принципам *чистых данных*. Поэтому приведём её к такому виду: в каждом
ряду у нас будут месячные наблюдения по всем банкам.

    ## # A tibble: 120 × 5
    ##     Bank Month  Requests  Approval    Issues
    ##    <chr> <dbl>     <dbl>     <dbl>     <dbl>
    ## 1      A     1  7357.101 0.1576522  890.7748
    ## 2      A     2 10476.824 0.1571524 1185.4494
    ## 3      A     3 10543.939 0.1581591 1427.4826
    ## 4      A     4 10702.785 0.1605418 1580.7845
    ## 5      A     5  7656.770 0.1640736  934.6680
    ## 6      A     6 11228.961 0.1684344 1694.6438
    ## 7      A     7 17323.022 0.1732302 2472.7175
    ## 8      A     8 17804.350 0.1780435 2307.7228
    ## 9      A     9  8517.202 0.1825115 1119.2307
    ## 10     A    10  6213.480 0.1864044  843.1841
    ## # ... with 110 more rows
…
Примечательно, что от банков **D** и **E** нет информации за первые
месяцы - возможно, они недавно открылись. Более примечательно, что от
банка **E** нет информации за последние месяцы. Возникает предположение,
что это отделение закрылось. Посмотрим, есть ли какие-то очевидные
поводы для такого решения.

Изучим данные
=============

Для начала добавим в нашу таблицу столбцы с абсолютным количеством
одобренных заявок, а так же "уровень согласия" - то есть процент
одобренных заявок, на которые согласились клиенты.

    ## # A tibble: 120 × 7
    ##     Bank Month  Requests Approved    Issues  Approval Accepted
    ##    <chr> <dbl>     <dbl>    <dbl>     <dbl>     <dbl>    <dbl>
    ## 1      A     1  7357.101 1159.863  890.7748 0.1576522    0.768
    ## 2      A     2 10476.824 1646.457 1185.4494 0.1571524    0.720
    ## 3      A     3 10543.939 1667.620 1427.4826 0.1581591    0.856
    ## 4      A     4 10702.785 1718.244 1580.7845 0.1605418    0.920
    ## 5      A     5  7656.770 1256.274  934.6680 0.1640736    0.744
    ## 6      A     6 11228.961 1891.344 1694.6438 0.1684344    0.896
    ## 7      A     7 17323.022 3000.871 2472.7175 0.1732302    0.824
    ## 8      A     8 17804.350 3169.949 2307.7228 0.1780435    0.728
    ## 9      A     9  8517.202 1554.487 1119.2307 0.1825115    0.720
    ## 10     A    10  6213.480 1158.220  843.1841 0.1864044    0.728
    ## # ... with 110 more rows
…
