Задание банка Открытие
…
Такую таблицу, наверное, удобно просматривать глазами, но с ней точно неудобно работать в программе, так как она не отвечает основным принципам чистых данных. Поэтому приведём её к такому виду: в каждом ряду у нас будут месячные наблюдения по всем банкам.

## # A tibble: 120 × 5
##     Bank Month  Requests  Approval    Issues
##    <chr> <dbl>     <dbl>     <dbl>     <dbl>
## 1      A     1  7357.101 0.1576522  890.7748
## 2      A     2 10476.824 0.1571524 1185.4494
## 3      A     3 10543.939 0.1581591 1427.4826
## 4      A     4 10702.785 0.1605418 1580.7845
## 5      A     5  7656.770 0.1640736  934.6680
## 6      A     6 11228.961 0.1684344 1694.6438
## 7      A     7 17323.022 0.1732302 2472.7175
## 8      A     8 17804.350 0.1780435 2307.7228
## 9      A     9  8517.202 0.1825115 1119.2307
## 10     A    10  6213.480 0.1864044  843.1841
## # ... with 110 more rows
…
